{
	"id": "1ed40d6b-6f33-4518-bcea-8b3a7dbb0e52",
	"name": "placeholderENV",
	"values": [
		{
			"key": "Base_URL",
			"value": "https://jsonplaceholder.typicode.com\n",
			"type": "default",
			"enabled": true
		}
	],
	"_postman_variable_scope": "environment",
	"_postman_exported_at": "2023-10-26T16:54:15.346Z",
	"_postman_exported_using": "Postman/10.19.9"
}