{
	"info": {
		"_postman_id": "f16cddc0-37e9-436d-af55-213f7a77627d",
		"name": "Rest_API_Reference",
		"schema": "https://schema.getpostman.com/json/collection/v2.1.0/collection.json",
		"_exporter_id": "29434150"
	},
	"item": [
		{
			"name": "New Request",
			"event": [
				{
					"listen": "test",
					"script": {
						"exec": [
							"pm.test(\"Status code is 201\", function () {\r",
							"    pm.response.to.have.status(201);\r",
							"});\r",
							"// Step 2.1: Declare the expected date\r",
							"var actualDate = new Date().toJSON().slice(0, 11);\r",
							"\r",
							"// Step 2.2: Fetch request parameters from request body\r",
							"var requestBody = pm.request.body.raw;\r",
							"requestBody = JSON.parse(requestBody);\r",
							"\r",
							"// Step 3: Validate response body\r",
							"// Step 3.1: Extract response body\r",
							"var responseBody = pm.response.json();\r",
							"\r",
							"// Step 3.2: Extract the response body value for each name\r",
							"var res_name = responseBody.res_name;\r",
							"var res_job = responseBody.res_job;\r",
							"var res_id = responseBody.id;\r",
							"var res_date = responseBody.createdAt;\r",
							"res_date = res_date.slice(0, 11);\r",
							"\r",
							"// Step 3.3: Validate response body\r",
							"pm.test(\"Validate responseBody: name\", function () {\r",
							"    pm.expect(res_name).to.eql(res_name);\r",
							"});\r",
							"\r",
							"pm.test(\"validate responseBody: job\", function() {\r",
							"    pm.expect(res_job).to.eql(res_job);\r",
							"})\r",
							"\r",
							"pm.test(\"Validate responseBody: id\", function () {\r",
							"    pm.expect(res_id).to.not.null;\r",
							"    pm.expect(res_id).to.not.eql(0);\r",
							"});\r",
							"\r",
							"pm.test(\"Validate responseBody: date\", function () {\r",
							"    pm.expect(res_date).to.eql(actualDate);\r",
							"});"
						],
						"type": "text/javascript"
					}
				}
			],
			"request": {
				"method": "POST",
				"header": [],
				"body": {
					"mode": "raw",
					"raw": "{\r\n    \"name\": \"morpheus\",\r\n    \"job\": \"zion resident\"\r\n}",
					"options": {
						"raw": {
							"language": "json"
						}
					}
				},
				"url": {
					"raw": "https://reqres.in/api/users",
					"protocol": "https",
					"host": [
						"reqres",
						"in"
					],
					"path": [
						"api",
						"users"
					]
				}
			},
			"response": []
		},
		{
			"name": "New Request",
			"event": [
				{
					"listen": "test",
					"script": {
						"exec": [
							"//step1: validate status code\r",
							"pm.test(\"Status code is 200\", function () {\r",
							"    pm.response.to.have.status(200);\r",
							"});\r",
							"//step2: Declare expected result\r",
							"//step2.1: Declare the expected Date\r",
							"var actualDate = new Date().toISOString().slice(0, 11);\r",
							"// step2.2: Fetch the parameter from request body\r",
							"var requestBody = pm.request.body.raw;\r",
							"requestBody = JSON.parse(requestBody);\r",
							"\r",
							"//step3: validate response body\r",
							"//step3.1: extract response body\r",
							"var responseBody = pm.response.json();\r",
							"\r",
							"//step3.2: extract the response body value for each name\r",
							"var res_name = responseBody.res_name;\r",
							"var res_job = responseBody.res_job;\r",
							"var res_id = responseBody.res_id;\r",
							"var res_date = responseBody.updatedAt;\r",
							"res_date = res_date.slice(0, 11);\r",
							"\r",
							"//step3.3: validate  response body\r",
							"pm.test(\"validate responseBody: name\", function () {\r",
							"    pm.expect(res_name).to.eql(res_name);\r",
							"})\r",
							"pm.test(\"validate responseBody: job\", function () {\r",
							"    pm.expect(res_job).to.eql(res_job);\r",
							"})\r",
							"pm.test(\"validate responseBody: id\", function () {\r",
							"    pm.expect(res_id).to.not.null;\r",
							"    pm.expect(res_id).to.not.eql(0);\r",
							"})\r",
							"pm.test(\"validate responseBody: Date\", function () {\r",
							"    pm.expect(res_date).to.eql(actualDate);\r",
							"})"
						],
						"type": "text/javascript"
					}
				}
			],
			"request": {
				"method": "PUT",
				"header": [],
				"body": {
					"mode": "raw",
					"raw": "{\r\n    \"name\": \"morpheus\",\r\n    \"job\": \"zion resident\"\r\n}",
					"options": {
						"raw": {
							"language": "json"
						}
					}
				},
				"url": {
					"raw": "https://reqres.in/api/users/2",
					"protocol": "https",
					"host": [
						"reqres",
						"in"
					],
					"path": [
						"api",
						"users",
						"2"
					]
				}
			},
			"response": []
		},
		{
			"name": "New Request",
			"event": [
				{
					"listen": "test",
					"script": {
						"exec": [
							"pm.test(\"Status code is 200\", function () {\r",
							"    pm.response.to.have.status(200);\r",
							"});\r",
							"// Step 2: Declare expected results\r",
							"// Step 2.1: Declare the expected date\r",
							"var actualDate = new Date().toJSON().slice(0, 11);\r",
							"\r",
							"// Step 2.2: Fetch request parameters from request body\r",
							"var requestBody = pm.request.body.raw;\r",
							"requestBody = JSON.parse(requestBody);\r",
							"\r",
							"// Step 3: Validate response body\r",
							"// Step 3.1: Extract response body\r",
							"var responseBody = pm.response.json();\r",
							"\r",
							"// Step 3.2: Extract the response body value for each name\r",
							"var res_name = responseBody.res_name;\r",
							"var res_job = responseBody.res_job;\r",
							"var res_id = responseBody.id;\r",
							"var res_date = responseBody.updatedAt;\r",
							"res_date = res_date.slice(0, 11);\r",
							"\r",
							"// Step 3.3: Validate response body\r",
							"pm.test(\"Validate responseBody: name\", function () {\r",
							"    pm.expect(res_name).to.eql(res_name);\r",
							"});\r",
							"\r",
							"pm.test(\"validate responseBody: job\", function() {\r",
							"    pm.expect(res_job).to.eql(res_job);\r",
							"})\r",
							"\r",
							"pm.test(\"Validate responseBody: id\", function () {\r",
							"    pm.expect(res_id).to.not.null;\r",
							"    pm.expect(res_id).to.not.eql(0);\r",
							"});\r",
							"\r",
							"pm.test(\"Validate responseBody: date\", function () {\r",
							"    pm.expect(res_date).to.eql(actualDate);\r",
							"});"
						],
						"type": "text/javascript"
					}
				}
			],
			"request": {
				"method": "PATCH",
				"header": [],
				"body": {
					"mode": "raw",
					"raw": "{\r\n    \"name\": \"morpheus\",\r\n    \"job\": \"zion resident\"\r\n}",
					"options": {
						"raw": {
							"language": "json"
						}
					}
				},
				"url": {
					"raw": "https://reqres.in/api/users/2",
					"protocol": "https",
					"host": [
						"reqres",
						"in"
					],
					"path": [
						"api",
						"users",
						"2"
					]
				}
			},
			"response": []
		}
	]
}